101785 363385
957837 27536
575984 291771
91601 217366
751830 478120
264736 28530
377443 511644
866220 616888
523225 91192
458082 386958
37653 834686
582192 617056
389723 110943
812375 459635
678253 339310
88261 886661
477274 849250
955375 984052
671991 982785
218753 310262
27174 703557
434803 4000
139076 92434
606969 171270
936175 320376
51287 328013
175094 782941
81372 827438
214110 763262
524153 120737
545687 171237
817463 43714
152737 323374
400067 952302
27143 36569
998032 768810
342610 644694
607667 336844
508584 195485
810969 28176
32887 304662
735044 135148
169902 645784
75127 421536
324551 300621
881863 176329
213181 434679
780592 721770
606687 179530
356258 923230
96092 854063
353489 389225
175794 454677
970426 535735
18396 929797
266562 730515
751137 933757
67961 958098
497344 120812
118788 543016
616312 667833
520110 147806
576751 763392
536732 614571
222082 209056
451895 204092
317274 613831
656854 269451
8430 214532
361502 1468
295270 960424
569204 216926
210226 180762
286061 554646
186587 288455
293829 340440
458744 752516
760624 469949
282157 774505
268357 114988
169299 747748
996622 830788
824801 59675
717342 135921
708101 172381
629897 655117
954860 941718
947845 9021
525637 797620
188287 939755
379968 394869
933905 338606
536726 797919
572652 382344
665492 358951
452119 116981
911662 166119
627630 881897
1607 125488
834823 23503
166471 116944
419421 209541
735505 609274
809685 642873
161950 298538
871117 775556
377880 546492
389716 257850
452457 357686
788137 770460
99176 274124
397786 654633
128111 946970
275396 982368
357471 530932
789411 34644
79803 397090
480138 43898
280950 406712
726538 97361
645395 563410
588175 220181
594736 31600
88157 506703
421304 157052
612892 233404
762850 166609
91423 815849
456353 862606
912216 631100
488045 732296
157177 985498
82994 569354
102884 994791
35064 860405
255205 588776
623769 713903
780377 452622
314240 556637
518094 459938
640485 804230
275259 309521
397462 811901
860979 965448
524093 626392
788513 489174
430829 358729
873423 121273
133023 530814
742578 924025
155738 745491
552389 917047
387702 468220
388382 447518
234750 745850
435620 920947
608795 112769
277333 485615
965096 361233
751755 755730
780195 54330
648594 905828
479175 251206
383290 503076
738612 494142
560850 940621
884473 379711
337393 770111
792948 656441
982791 714024
836682 124429
989127 461251
891053 226555
105528 114889
675445 470446
702869 90295
50131 776260
104815 13148
402068 384055
921278 96669
768721 612598
560291 843828
287476 397946
49721 744123
889579 331572
847072 857713
617446 802292
667827 797570
826934 555624
432873 522804
195684 875804
300036 188446
936971 947361
942581 284858
806274 213519
360943 286564
706534 868835
804631 624462
405826 654779
292376 33968
808788 651555
904695 330303
526540 930102
549275 797515
975344 688716
405326 653749
190898 408820
