1 1
1 2
1 3
1 4
1 5
1 6
1 7
1 8
1 9
1 10
571 430
15 562
504 921
333 370
643 687
72 368
841 840
217 584
118 718
157 286
233919 866165
596962 692190
362084 381316
694920 690135
791756 144463
565743 383904
374988 930686
989330 333715
476495 85082
275159 84815
742801 746197
396905 187130
90836 522683
823003 33821
115346 384022
330476 455956
64224 130152
955789 452032
687707 804151
114165 979687
488296 722338
945123 757
28355 857920
808440 675156
665903 214551
134362 372742
907812 928247
929695 625349
778135 33111
341119 677
477832 946502
907690 133494
951215 828277
663624 558544
735878 789150
126399 581075
799545 233841
351674 707115
703540 817550
334119 290208
312078 173914
503464 216686
580471 426403
455300 196879
185013 293155
110054 179189
310820 145711
388640 211150
442952 155177
371558 287279
116569 27880
790525 998757
834125 20768
698157 221547
299184 28100
347290 652780
878461 108318
932101 856232
473706 53446
225603 145692
835205 220055
478707 622491
24693 804052
405614 576656
381858 357550
527122 15000
866050 71854
704224 287245
541513 577293
793551 395761
958382 909519
459525 62313
749255 971188
217232 415645
82786 2784
467998 521852
406695 949044
917955 88068
8412 55437
733909 969966
392096 740769
68258 74449
435278 273348
232605 379864
756025 992368
819181 759307
365693 220762
584119 94069
671487 618578
859597 969831
615624 310147
341322 924754
46211 990455
796414 330025
418259 918468
18556 827306
843483 434737
575425 397729
990902 833135
884467 697198
70333 519955
391837 334942
155675 494882
540281 649859
104846 102152
146519 218665
52887 131975
637597 195935
768139 708827
603333 963775
658374 319735
183544 105402
402464 289863
577622 210302
880006 35529
674621 843482
751199 210132
407413 698437
737576 160748
293680 542009
239245 962556
930050 920314
918895 365894
805692 759966
353308 989257
295589 376118
576055 11875
845169 516927
537552 978044
462846 552786
165464 222379
817987 587466
663763 271902
338556 788129
616987 730629
974360 781140
376841 86764
365877 470101
279736 450942
889192 422885
827258 23864
347534 826734
548182 281948
388281 956376
127609 405086
509543 365270
217010 568309
994544 815092
809456 253560
146965 636151
497919 764145
300440 131570
124573 145068
73334 307888
380358 640163
442880 552709
210054 330961
159085 89509
127840 153429
351424 377242
77685 958183
559343 226327
851957 247253
63350 114039
459523 553811
869859 204497
951686 613843
622021 972207
457091 126286
657944 863273
807952 795546
155189 790779
611071 11479
292082 196831
358324 816711
898998 777513
38521 402095
933837 905498
300829 920149
203945 242453
142796 339296
511634 138740
675231 660967
761719 251168
272627 384437
650421 180566
962183 784606
250898 799762
755799 393866
771803 621890
500270 88118
420656 935005
353306 958184
622429 514127
246332 524833
622493 696595
292858 955050
565073 49889
347591 434641
605995 719328
79929 459409
649994 261183
531469 661006
228229 907930
358158 834734
356069 59193
319916 473474
398068 456363
884057 469786
52789 538057
539430 94813
8188 446181
992899 123506
634781 579128
332918 440658
423535 118526
253322 646329
993906 218572
80291 828450
79495 784972
852398 557448
693303 298683
397388 411395
436907 32150
901402 161964
551712 536117
436316 515739
125270 61188
741347 605925
736449 486524
915571 788080
919050 758923
293263 754020
965814 34420
61533 62336
77192 422727
664371 949384
99173 497061
602348 831402
146413 955480
783528 852653
80403 466451
494949 124375
974738 478434
139014 112847
957879 597286
916111 29228
577587 382360
129965 401101
480737 91840
596491 93594
487957 161660
870844 63138
718779 531391
916627 9546
696947 366801
439197 212410
205527 347640
460412 574893
838591 334995
338198 87449
3360 71400
946332 777265
170897 116481
290844 384714
147726 970874
350198 896521
621469 532482
952424 532205
750218 860452
210415 770555
161388 884600
102603 931110
286816 631556
722493 936511
7510 385915
383331 602748
522796 998922
51300 891883
