557519 935234 525
849220 873641 432
172394 911906 525
413900 841333 525
159056 572218 470
983627 465546 525
358263 318576 441
324748 207634 443
940424 1211 525
414723 914464 525
118841 478028 449
114227 911115 525
638083 708801 504
221839 699099 509
812237 898312 525
927338 646876 525
515000 664420 509
276377 292241 389
789927 458243 509
25619 791451 509
917339 266273 525
188640 622209 470
651704 439653 509
258786 521461 470
613923 557018 434
407666 677156 509
40750 429897 449
874125 427794 525
730255 603921 509
275969 87904 443
416834 717061 509
369336 314253 441
968101 474830 525
309915 745831 509
404132 730563 509
669535 992992 525
186921 776276 509
795645 600086 509
288605 892363 525
365460 150331 443
293571 211118 443
516599 756069 509
510019 583635 470
433353 151826 449
597222 184277 470
749631 658243 504
255318 300833 407
327436 413907 449
87687 307906 443
533616 231237 470
467534 426421 444
210329 918335 525
408737 812151 509
97445 792834 509
702980 341045 509
788429 762140 468
7340 459540 449
927820 957404 507
367253 396381 436
324063 690775 509
539978 326190 470
530657 66040 470
180938 277777 443
828003 75979 509
8426 933971 525
998918 225053 525
654118 878210 525
281210 310764 389
248889 503575 449
910589 585005 525
618831 259807 470
257455 355214 441
333892 896744 525
708713 80362 509
425680 238171 449
701944 859343 525
409109 100125 443
855929 456308 525
704329 658896 442
599582 858128 525
478573 791301 509
654508 791374 504
215616 231515 443
515837 128219 470
46565 171930 383
799202 912095 525
75091 528471 470
283256 464624 449
503184 984467 525
979471 165561 525
928477 614639 525
869587 892437 445
308032 470712 449
882720 290290 525
362455 545500 470
949814 693489 525
672151 185100 509
129663 91195 354
960239 412287 525
639963 154085 509
620155 605298 447
654621 226372 509
737882 930846 525
250733 936619 525
803951 740885 468
678911 531765 509
861477 393339 525
42804 561468 470
999515 978051 440
400189 412757 449
425658 334893 449
996398 702783 525
686978 703196 442
600414 954702 525
428286 672390 509
12424 785371 509
329376 817827 509
82872 524526 470
720359 20384 509
947439 502212 525
493175 208505 449
961558 212728 525
591362 685534 509
762817 146441 509
898967 865613 445
489166 737807 509
694612 7539 509
148425 74548 375
324975 341787 366
991545 959129 458
920685 599858 525
337827 74507 443
13903 584971 470
573432 708277 509
141135 334663 443
907608 518441 525
830867 268324 509
489336 177767 449
821019 158027 509
833907 352438 509
611564 221720 470
924836 317517 525
408169 998460 525
97980 260472 443
508901 144973 449
177848 310980 443
175823 547659 470
886168 495729 525
65591 725864 509
365295 661279 509
753846 535335 509
477392 69879 449
307531 603223 470
994312 532163 525
239201 805203 509
263018 753081 509
715 940810 525
941657 643145 525
125038 955641 525
553662 118087 470
931937 832015 525
167221 167748 290
130449 874033 525
424363 714284 509
589116 787875 509
40519 805181 509
450816 945162 525
779296 968275 525
377149 412249 449
33892 808288 509
819871 109311 509
653507 24252 509
601691 373529 470
767881 895949 525
122505 715841 509
466459 52129 449
319113 953220 525
626412 469557 509
486799 329231 449
640053 796507 504
921713 513195 525
974138 359956 525
492561 610661 470
466229 894761 525
162459 675913 509
177754 374312 443
264018 166311 443
75773 526052 470
789311 394219 509
137378 645555 509
4367 517512 470
18868 602958 470
243890 687669 509
713301 14117 509
810525 6730 509
958387 515151 525
660348 199078 509
473485 294690 449
750748 963049 525
749250 663685 504
922610 802163 525
257711 336164 407
938877 935181 445
590089 207340 470
297119 258154 407
752575 939491 525
890249 885893 445
877544 443815 525
840428 724438 525
297482 974730 525
234708 998849 525
973503 376183 525
172902 92962 383
147442 889865 525
243432 593233 470
594633 86371 470
551404 713469 509
737844 483334 509
721144 476131 509
904223 273975 525
474305 839742 525
817977 315784 509
45629 140930 354
499098 568463 470
596786 652026 509
611956 587560 403
802842 208247 509
125100 304629 443
778148 108986 509
778399 421288 509
681143 447827 509
458583 846625 525
289357 582226 470
850723 738494 525
228481 705379 509
378926 890465 525
474356 900874 525
379280 56571 443
281255 999036 525
379688 294698 441
431237 691793 509
525458 192413 470
685635 363229 509
280313 239248 407
71670 265374 443
495300 283702 449
667552 278387 509
562640 587604 434
389595 233971 441
874103 981885 507
803612 936061 525
543204 486410 470
579840 238083 470
123386 262782 443
80760 714279 509
25351 814204 509
45053 146361 375
780392 102826 509
778184 539347 509
800446 843300 525
530410 544132 408
568035 997316 525
181880 641441 509
797533 940208 525
478824 123092 449
188563 419807 449
747510 117257 509
391778 344298 441
223552 558046 470
70308 264992 443
606058 977719 525
403083 184288 443
774774 652455 504
269198 171690 443
582321 129377 470
363275 697734 509
171960 844409 525
511153 305145 449
587714 269369 470
680789 15752 509
671804 681827 385
867193 584187 525
695121 274602 509
25256 36554 324
653982 397838 509
823815 220639 509
742092 743862 349
112210 188510 383
432356 902284 525
161885 892698 525
553674 295480 470
660609 665804 442
358991 202276 443
398860 379721 436
588253 159816 470
766015 237034 509
331590 1883 443
375864 995610 525
186899 329020 443
651642 155853 509
